date_effet,date_texte,date_parution_jo,echelon_1cn,echelon_2cn,echelon_3cn,echelon_4cn,echelon_5cn,echelon_6cn,echelon_7cn,echelon_8cn,echelon_9cn,lien_legifrance
2023-09-01,2023-07-19,2023-07-20,2130,2980,3370,3180,2880,2500,1500,400,400,https://www.legifrance.gouv.fr/jorf/id/JORFTEXT000047862595
2022-02-01,2021-12-14,2021-12-16,0,2200,2050,1500,1100,900,900,400,400,https://www.legifrance.gouv.fr/jorf/id/JORFTEXT000044500942
2021-05-01,2021-03-12,2021-03-14,0,1400,1250,900,700,500,500,0,0,https://www.legifrance.gouv.fr/jorf/id/JORFTEXT000043246529
