date_effet,date_texte,date_parution_jo,valeur_100_points_euros,valeur_100_points_francs,lien_legifrance
2023-07-01,2023-06-28,2023-06-29,5907.34,,https://www.legifrance.gouv.fr/loda/id/JORFTEXT000047749211
2022-07-01,2022-07-07,2022-07-08,5820.04,,https://www.legifrance.gouv.fr/jorf/id/JORFTEXT000046026212
2017-02-01,2016-05-25,2016-05-26,5623.23,,https://www.legifrance.gouv.fr/jorf/id/JORFTEXT000032584286
2016-07-01,2016-05-25,2016-05-26,5589.69,,https://www.legifrance.gouv.fr/jorf/id/JORFTEXT000032584286
2010-07-01,2010-07-07,2010-07-08,5556.35,,https://www.legifrance.gouv.fr/jorf/id/JORFTEXT000022447551
2009-10-01,2009-09-30,2009-10-01,5528.71,,https://www.legifrance.gouv.fr/jorf/id/JORFTEXT000021089930
2009-07-01,2009-07-03,2009-07-04,5512.17,,https://www.legifrance.gouv.fr/jorf/id/JORFTEXT000020815910
2008-10-01,2008-10-02,2008-10-03,5484.75,,https://www.legifrance.gouv.fr/jorf/id/JORFTEXT000019564067
2008-03-01,2008-02-27,2008-02-29,5468.34,,https://www.legifrance.gouv.fr/jorf/id/JORFTEXT000018194389
2007-02-01,2007-01-25,2007-01-27,5441.13,,https://www.legifrance.gouv.fr/jorf/id/JORFTEXT000000646481
2006-07-01,2006-06-29,2006-06-30,5397.95,,https://www.legifrance.gouv.fr/jorf/id/JORFTEXT000000422923
2005-11-01,2005-10-20,2005-10-21,5371.1,,https://www.legifrance.gouv.fr/jorf/id/JORFTEXT000000240944
2005-07-01,2005-06-29,2005-06-30,5328.47,,https://www.legifrance.gouv.fr/jorf/id/JORFTEXT000000810890
2005-02-01,2005-01-15,2005-01-18,5301.96,,https://www.legifrance.gouv.fr/jorf/id/JORFTEXT000000445092
2004-01-01,2003-12-08,2003-12-09,5275.58,,https://www.legifrance.gouv.fr/jorf/id/JORFTEXT000000431431
2002-12-01,2002-10-24,2002-10-26,5249.33,,https://www.legifrance.gouv.fr/jorf/id/JORFTEXT000000227909
2002-03-01,2002-02-14,2002-02-16,5212.84,,https://www.legifrance.gouv.fr/jorf/id/JORFTEXT000000226175
2001-11-01,2001-09-26,2001-09-29,,33990,https://www.legifrance.gouv.fr/jorf/id/JORFTEXT000000773694
2001-05-01,2001-04-25,2001-04-28,,33754,https://www.legifrance.gouv.fr/jorf/id/JORFTEXT000000210853
2000-12-01,2000-11-29,2000-11-30,,33586,https://www.legifrance.gouv.fr/jorf/id/JORFTEXT000000587481
1999-12-01,1999-11-12,1999-11-14,,33419,https://www.legifrance.gouv.fr/loda/id/JORFTEXT000000397436
1999-04-01,1999-03-17,1999-03-20,,33155,https://www.legifrance.gouv.fr/loda/id/JORFTEXT000000393446
1998-11-01,1998-10-21,1998-10-23,,32990,https://www.legifrance.gouv.fr/loda/id/JORFTEXT000000557774
1998-04-01,1998-03-04,1998-03-08,,32828,https://www.legifrance.gouv.fr/jorf/id/JORFTEXT000000556219
1997-10-01,1997-09-25,1997-09-27,,32567,https://www.legifrance.gouv.fr/jorf/id/JORFTEXT000000202306
1997-03-01,1997-02-13,1997-02-15,,32405,https://www.legifrance.gouv.fr/jorf/id/JORFTEXT000000564762
1995-11-01,1995-10-09,1995-10-13,,32244,https://www.legifrance.gouv.fr/jorf/id/JORFTEXT000000189590
1995-03-01,1995-02-17,1995-02-18,,31799,https://www.legifrance.gouv.fr/jorf/id/JORFTEXT000000735678
1994-12-01,1994-11-21,1994-11-22,,31422,https://www.legifrance.gouv.fr/jorf/id/JORFTEXT000000530887
1994-08-01,1994-07-15,1994-07-15,,31080,https://www.legifrance.gouv.fr/jorf/id/JORFTEXT000000531157
1994-01-01,1993-12-20,1993-12-21,,30926,https://www.legifrance.gouv.fr/jorf/id/JORFTEXT000000881133
1993-02-01,1993-01-25,1993-01-25,,30711,https://www.legifrance.gouv.fr/jorf/id/JORFTEXT000000725384
1992-10-01,1992-09-18,1992-09-19,,30190,https://www.legifrance.gouv.fr/jorf/id/JORFTEXT000000177462
1992-02-01,1992-01-30,1992-02-04,,29784,https://www.legifrance.gouv.fr/jorf/id/JORFTEXT000000710574
1991-11-01,,,,29408,
1991-08-01,,,,29118,
1990-12-01,1990-11-22,1990-11-30,,28973,https://www.legifrance.gouv.fr/jorf/id/JORFTEXT000000352399
1990-04-01,,,,28607,
1990-01-01,1990-04-05,1990-04-11,,28270,https://www.legifrance.gouv.fr/jorf/id/JORFTEXT000000522509
1989-09-01,1989-08-30,1989-08-31,,28129,https://www.legifrance.gouv.fr/jorf/id/JORFTEXT000000700022
1989-03-01,,,,27798,
1988-09-01,1988-08-29,1988-08-30,,27523,https://www.legifrance.gouv.fr/jorf/id/JORFTEXT000000314581
1988-03-01,1988-03-09,1988-03-13,,27253,https://www.legifrance.gouv.fr/jorf/id/JORFTEXT000000315254
1987-08-01,1987-11-16,1987-11-18,,26983,https://www.legifrance.gouv.fr/jorf/id/JORFTEXT000000333619
1987-08-01,1987-07-30,1987-07-31,,26719,https://www.legifrance.gouv.fr/jorf/id/JORFTEXT000000333235
1987-05-01,1987-11-16,1987-11-18,,26851,https://www.legifrance.gouv.fr/jorf/id/JORFTEXT000000333619
1987-03-01,1987-02-18,1987-02-20,,26587,https://www.legifrance.gouv.fr/jorf/id/JORFTEXT000000337218
1985-11-01,1985-10-24,1985-11-05,,26428,https://www.legifrance.gouv.fr/jorf/id/JORFTEXT000000872483
1985-07-01,1985-06-27,1985-07-04,,26049,https://www.legifrance.gouv.fr/jorf/id/JORFTEXT000000867347
1985-02-01,1985-02-15,1985-02-17,,25669,https://www.legifrance.gouv.fr/jorf/id/JORFTEXT000000703581
1984-11-01,1984-10-10,1984-10-14,,25290,https://www.legifrance.gouv.fr/jorf/id/JORFTEXT000000690173
1984-04-01,,,,24799,
1984-01-01,1984-01-03,1984-01-04,,24553,https://www.legifrance.gouv.fr/jorf/id/JORFTEXT000000328375
1983-11-01,,,,24115,
1983-11-01,1983-11-02,1983-11-04,,23669,https://www.legifrance.gouv.fr/jorf/id/JORFTEXT000000689251
1983-07-01,1983-07-02,1983-07-05,,22992,https://www.legifrance.gouv.fr/jorf/id/JORFTEXT000000507201
1983-04-01,1983-04-07,1983-04-08,,22550,https://www.legifrance.gouv.fr/jorf/id/JORFTEXT000000877716
1983-01-01,1982-12-23,1982-12-28,,22108,https://www.legifrance.gouv.fr/jorf/id/JORFTEXT000000518251
1982-12-01,1982-12-08,1982-12-09,,22108,https://www.legifrance.gouv.fr/jorf/id/JORFTEXT000000883611
1982-11-01,1982-11-10,1982-11-11,,21703,https://www.legifrance.gouv.fr/jorf/id/JORFTEXT000000884538
1982-04-01,1982-04-13,1982-04-14,,20883,https://www.legifrance.gouv.fr/jorf/id/JORFTEXT000000335796
1982-01-01,1982-01-14,1982-01-15,,20306,https://www.legifrance.gouv.fr/jorf/id/JORFTEXT000000880114
1981-10-01,1981-10-09,1981-10-13,,19690,https://www.legifrance.gouv.fr/jorf/id/JORFTEXT000000335122
1981-07-01,1981-07-07,1981-07-08,,18742,https://www.legifrance.gouv.fr/jorf/id/JORFTEXT000000338653
1981-04-01,1981-04-10,1981-04-11,,18144,https://www.legifrance.gouv.fr/jorf/id/JORFTEXT000000503032
1981-01-01,1981-01-09,1981-01-11,,17613,https://www.legifrance.gouv.fr/jorf/id/JORFTEXT000000310109
1980-10-01,1980-10-13,1980-10-14,,17153,https://www.legifrance.gouv.fr/jorf/id/JORFTEXT000000503007
1980-07-01,1980-07-07,1980-07-11,,16482,https://www.legifrance.gouv.fr/jorf/id/JORFTEXT000000516123
1980-04-01,1980-04-10,1980-04-12,,15998,https://www.legifrance.gouv.fr/jorf/id/JORFTEXT000000338149
1980-03-01,1980-02-29,1980-03-04,,15730,https://www.legifrance.gouv.fr/jorf/id/JORFTEXT000000519633
1980-01-01,1980-02-06,1980-02-07,,15346,https://www.legifrance.gouv.fr/jorf/id/JORFTEXT000000680406
1979-12-01,1979-12-04,1979-12-06,,15237,https://www.legifrance.gouv.fr/jorf/id/JORFTEXT000000501019
1979-10-01,1979-07-13,1979-07-19,,15033,https://www.legifrance.gouv.fr/jorf/id/JORFTEXT000000879962
1979-09-01,1979-07-13,1979-07-19,,14829,https://www.legifrance.gouv.fr/jorf/id/JORFTEXT000000879962
1979-07-01,1979-07-13,1979-07-19,,14382,https://www.legifrance.gouv.fr/jorf/id/JORFTEXT000000879962
1979-06-01,1979-06-07,1979-06-08,,14178,https://www.legifrance.gouv.fr/jorf/id/JORFTEXT000000516643
1979-03-01,1979-03-15,1979-03-16,,13804,https://www.legifrance.gouv.fr/jorf/id/JORFTEXT000000337209
1979-01-01,1979-03-15,1979-03-16,,13600,https://www.legifrance.gouv.fr/jorf/id/JORFTEXT000000337209
1978-11-01,1978-11-02,1978-11-05,,13576,https://www.legifrance.gouv.fr/jorf/id/JORFTEXT000000519302
1978-10-01,1978-09-04,1978-09-05,,13392,https://www.legifrance.gouv.fr/jorf/id/JORFTEXT000000696782
1978-09-01,1978-09-04,1978-09-05,,13203,https://www.legifrance.gouv.fr/jorf/id/JORFTEXT000000696782
1978-06-01,1978-07-19,1978-07-20,,12897,https://www.legifrance.gouv.fr/jorf/id/JORFTEXT000000516819
1978-06-01,1978-06-07,1978-06-08,,12775,https://www.legifrance.gouv.fr/jorf/id/JORFTEXT000000338365
1978-02-01,1978-02-08,1978-02-10,,12408,https://www.legifrance.gouv.fr/jorf/id/JORFTEXT000000883901
1977-12-01,1977-12-09,1977-12-13,,12225,https://www.legifrance.gouv.fr/jorf/id/JORFTEXT000000519071
1977-09-01,1977-09-14,1977-09-15,,11945,https://www.legifrance.gouv.fr/jorf/id/JORFTEXT000000883879
1977-06-01,1977-06-07,1977-06-08,,11653,https://www.legifrance.gouv.fr/jorf/id/JORFTEXT000000337890
1977-04-01,1977-04-14,1977-04-15,,11373,https://www.legifrance.gouv.fr/jorf/id/JORFTEXT000000883676
1977-01-01,,,,11256,
1976-10-01,1976-10-07,1976-10-08,,11019,https://www.legifrance.gouv.fr/jorf/id/JORFTEXT000000857289
1976-07-01,1976-07-06,1976-07-07,,10668,https://www.legifrance.gouv.fr/jorf/id/JORFTEXT000000304827
1976-04-01,1976-04-06,1976-04-07,,10456,https://www.legifrance.gouv.fr/jorf/id/JORFTEXT000000304393
1976-01-01,1976-04-06,1976-04-07,,10234,https://www.legifrance.gouv.fr/jorf/id/JORFTEXT000000304393
1975-10-01,1975-10-10,1975-10-11,,9975,https://www.legifrance.gouv.fr/jorf/id/JORFTEXT000000500045
1975-07-01,1975-07-07,1975-07-09,,9602,https://www.legifrance.gouv.fr/jorf/id/JORFTEXT000000335017
1975-04-01,1975-04-08,1975-04-09,,9439,https://www.legifrance.gouv.fr/jorf/id/JORFTEXT000000883647
1975-01-01,1975-02-07,1975-02-11,,9207,https://www.legifrance.gouv.fr/jorf/id/JORFTEXT000000703317
1974-12-01,1974-12-02,1974-12-03,,9078,https://www.legifrance.gouv.fr/jorf/id/JORFTEXT000000514272
1974-11-01,1974-07-19,1974-07-21,,8879,https://www.legifrance.gouv.fr/jorf/id/JORFTEXT000000857244
1974-09-01,1974-07-19,1974-07-21,,8639,https://www.legifrance.gouv.fr/jorf/id/JORFTEXT000000857244
1974-07-01,1974-07-19,1974-07-21,,8481,https://www.legifrance.gouv.fr/jorf/id/JORFTEXT000000857244
1974-06-01,,,,8401,
1974-04-01,,,,8274,
1974-02-01,1974-02-20,1974-02-21,,8096,https://www.legifrance.gouv.fr/jorf/id/JORFTEXT000000875515
1974-01-01,,,,7937,
1973-12-01,,,,7830,
1973-10-01,1973-10-16,1976-10-17,,7705,https://www.legifrance.gouv.fr/jorf/id/JORFTEXT000000510967
1973-08-01,,,,7421,
1973-07-01,,,,7367,
1973-06-01,1973-06-14,1973-06-15,,7332,https://www.legifrance.gouv.fr/jorf/id/JORFTEXT000000307262
1973-01-01,1973-01-31,1973-02-02,,7225,https://www.legifrance.gouv.fr/jorf/id/JORFTEXT000000334773
1973-01-01,1973-01-10,1973-01-14,,7091,https://www.legifrance.gouv.fr/jorf/id/JORFTEXT000000499914
1972-10-01,1972-10-05,1972-10-08,,6993,https://www.legifrance.gouv.fr/jorf/id/JORFTEXT000000303844
1972-09-01,1972-10-05,1972-10-08,,6844,https://www.legifrance.gouv.fr/jorf/id/JORFTEXT000000303844
1972-06-01,1972-05-16,1972-05-19,,6778,https://www.legifrance.gouv.fr/jorf/id/JORFTEXT000000333926
1972-02-01,1972-01-18,1972-01-19,,6667,https://www.legifrance.gouv.fr/jorf/id/JORFTEXT000000495565
1972-01-01,1971-12-02,1971-12-05,,6568,https://www.legifrance.gouv.fr/jorf/id/JORFTEXT000000511480
1971-11-01,1971-12-02,1971-12-05,,6538,https://www.legifrance.gouv.fr/jorf/id/JORFTEXT000000511480
1971-10-01,1971-09-14,1971-09-23,,6466,https://www.legifrance.gouv.fr/jorf/id/JORFTEXT000000336157
1971-06-01,,,,6238,
1971-01-01,1971-03-29,1971-03-30,,6148,https://www.legifrance.gouv.fr/jorf/id/JORFTEXT000000698273
1970-10-01,,,,6028,
1970-10-01,1970-05-12,1970-05-13,,5972,https://www.legifrance.gouv.fr/jorf/id/JORFTEXT000000304046
1970-04-01,1970-05-12,1970-05-13,,5902,https://www.legifrance.gouv.fr/jorf/id/JORFTEXT000000304046
1970-01-01,1970-03-05,1970-03-06,,5679,https://www.legifrance.gouv.fr/jorf/id/JORFTEXT000000307458
1969-10-01,1969-10-06,1969-10-07,,5623,https://www.legifrance.gouv.fr/jorf/id/JORFTEXT000000307687
1968-10-01,1970-06-21,1970-06-22,,5355,https://www.legifrance.gouv.fr/jorf/id/JORFTEXT000000869089
1968-06-01,1970-06-21,1970-06-22,,5151,https://www.legifrance.gouv.fr/jorf/id/JORFTEXT000000869089
1967-09-01,1967-08-12,1967-08-20,,4848,https://www.legifrance.gouv.fr/jorf/id/JORFTEXT000000702275
1967-03-01,1967-02-10,1967-02-12,,4743,https://www.legifrance.gouv.fr/jorf/id/JORFTEXT000000303540
1966-10-01,1966-08-24,1966-08-27,,4650,https://www.legifrance.gouv.fr/jorf/id/JORFTEXT000000512897
1966-04-01,1966-03-25,1966-03-27,,4560,https://www.legifrance.gouv.fr/jorf/id/JORFTEXT000000695448
1965-04-01,1965-03-19,1965-03-21,,4385,https://www.legifrance.gouv.fr/jorf/id/JORFTEXT000000311059
1964-10-01,1964-09-07,1964-09-09,,4299,https://www.legifrance.gouv.fr/jorf/id/JORFTEXT000000491108
1964-04-01,1964-01-27,1964-01-28,,4217,https://www.legifrance.gouv.fr/jorf/id/JORFTEXT000000490422
1964-01-01,1964-01-27,1964-01-28,,4134,https://www.legifrance.gouv.fr/jorf/id/JORFTEXT000000490422
1963-10-01,1963-10-19,1963-10-21,,4063,https://www.legifrance.gouv.fr/jorf/id/JORFTEXT000000865932
1963-10-01,1963-09-24,1963-09-25,,4043,https://www.legifrance.gouv.fr/jorf/id/JORFTEXT000000676855
1963-04-01,1963-05-15,1963-05-16,,3983,https://www.legifrance.gouv.fr/jorf/id/JORFTEXT000000329452
