echelon_depart,echelon_arrivee,anciennete_arrivee,majoration_anciennete_arrivee
1,anc_corps,acq,0
2,anc_corps,acq,0
3,anc_corps,acq,0
4,4,acq,2
5,5,acq,2
6,6,acq,2
7,7,acq,2
8,8,acq,2
9,9,acq,2
10,10,acq,2
11,11,acq,2
