year,ocde_min,ocde_max,ocde_med,ocde_moy,histo_min,histo_max,histo_med,histo_moy,AUS,AUT,BFL,BFR,BGR,CAN,CHL,COL,CRI,CZE,DEU,DNK,ESP,EST,EU25,FIN,FRA,GRC,HRV,HUN,IRL,ISL,ISR,ITA,JPN,KOR,LTU,LUX,LVA,MEX,NLD,NOR,NZL,OAVG,OECD,POL,PRT,ROU,SVK,SVN,SWE,TUR,UKB,UKM,USA
2000,12782.7202717667,62664.6650038175,42207.132965419,39925.7422459134,12782.7202717667,62664.6650038175,42207.132965419,39925.7422459134,0,46485.9274395924,0,0,0,0,0,0,0,0,0,54679.0808180209,0,0,0,41934.12529825,44986.4866580159,31813.6578590416,0,12782.7202717667,44041.0595272917,0,24840.9090619297,42480.140632588,54736.5765314718,0,0,0,0,32784.9755759714,0,0,0,0,0,0,0,0,0,36998.2684033368,0,27731.7983616928,0,0,62664.6650038175
2005,20152.2492403134,106038.791896181,47643.6800435532,47812.6417244815,20152.2492403134,60934.2599016111,43873.0971756227,43271.6241071884,55226.6054405223,53202.4746416974,0,0,0,0,0,0,0,0,71406.6056065152,58333.9801265585,57170.1850718038,0,0,47643.6800435532,43000.8538104919,37186.7432526124,0,20152.2492403134,54057.0815126391,38608.2805121344,25081.158897346,44745.3405407536,53879.0775630148,53219.3579400183,0,106038.791896181,0,36898.926290386,0,42548.7872713702,0,0,0,21796.5324800966,47872.8759437942,0,0,42843.1018948625,0,27843.8097847976,0,0,60934.2599016111
2006,16529.3104999377,105650.99983812,47002.7810751349,47778.7787796772,19740.1533500926,61542.8301192927,44148.2509133858,43592.2815508028,54399.4812147325,53237.0101460327,0,0,0,0,16529.3104999377,0,0,0,70744.6367396144,58826.2839788579,57622.138895772,0,0,49010.6759798917,42738.2410291111,37634.5857088919,0,19740.1533500926,56134.7320161855,40585.7065367024,25686.8028618918,44212.9332652505,54007.8626578002,53774.2458886233,0,105650.99983812,0,36910.129639438,0,42310.6695326981,0,0,0,0,47002.7810751349,0,0,44083.568561521,0,26526.1323969821,0,0,61542.8301192927
2007,16502.2665716992,105800.233632578,46125.582297507,47703.9920781941,18918.9445794131,61517.5337463705,44200.7362348004,43432.608385691,55474.6337071704,53630.2544029245,0,0,0,0,16502.2665716992,0,0,0,73945.6857746279,58668.8806138781,56812.6887146731,0,0,49222.6136307924,42330.2474202225,35910.9913485174,0,18918.9445794131,57573.5319004881,38109.9636961817,25552.8285489494,43612.4805161906,51713.8868831134,53606.7618936139,0,105800.233632578,0,37000.94253082,0,42757.4841107392,0,0,0,0,46125.582297507,0,0,44788.9919534101,0,27614.3893245838,0,0,61517.5337463705
2008,18499.4103656858,113180.447082948,45593.8904375984,48713.1564310136,18499.4103656858,65025.7363438845,43972.3286739706,43798.933385913,57329.6216737306,53890.6384658674,0,0,0,0,0,0,0,0,73548.8868956533,59928.9574836497,58864.6198389304,0,0,50113.1456349659,41578.6530263944,36295.572644346,0,18499.4103656858,57517.4632723197,38973.1874033441,27164.9742862013,43566.6076092989,49868.9732399401,52766.5016084106,0,113180.447082948,0,37059.4174043601,0,43813.827055124,0,0,0,23146.5485147917,45593.8904375984,0,0,44378.0497386423,0,28297.4678872257,0,0,65025.7363438845
2009,13502.3456309709,120437.936794237,46613.8400126705,47332.7076300647,16378.6518506515,65003.4517285548,45913.2500311724,44804.4836117271,56716.2068716771,55016.4403016449,0,0,0,0,27383.7199704025,0,0,0,73374.2798522155,63545.3726764919,60715.3307590158,0,0,49999.0819709384,41578.8012205128,37154.3306805484,0,16378.6518506515,62366.7542300382,38040.0432608755,27313.5058596216,44493.4867118501,49980.680548499,51031.9122646056,0,120437.936794237,0,37407.1017417752,0,44452.0355718519,0,0,0,23787.269198916,46613.8400126705,0,13502.3456309709,47333.0133504946,0,29692.0976925582,0,0,65003.4517285548
2010,13829.8792131205,118491.526632767,46935.1962716058,47549.2774074971,15797.6679572806,65105.1497985451,45823.0774357498,45225.9081484567,57754.9938402008,55588.61177721,0,0,0,0,27934.4516471014,0,0,0,75397.7431339089,62432.2702625956,60650.2228053855,0,0,50837.3844963565,41998.5073098094,38358.4083145691,0,15797.6679572806,64646.3710086616,34785.7722253441,27592.660134064,44710.9585998938,49451.449928395,49765.0991945176,0,118491.526632767,0,38073.8292090277,0,45135.2343904737,0,0,0,24699.928624337,47124.3694018771,0,13829.8792131205,46935.1962716058,0,31634.2490103797,0,0,65105.1497985451
2011,13546.5367389521,116016.468890353,47020.3996042743,47219.4765726205,15239.8571502858,65029.4594091351,45335.5571848861,44634.3905447325,59301.504094564,54862.6384209521,0,0,0,0,27850.0655496601,0,0,0,76556.5856190533,60968.422422398,57451.2622668765,0,0,50250.9534208432,41575.5452800593,33257.5228452559,0,15239.8571502858,64704.6366241546,33522.4935726452,29199.3287522005,44042.568888196,49060.6348274763,50833.5046396484,0,116016.468890353,0,38860.1968296752,0,47020.3996042743,0,0,0,25438.5405048501,48068.0852083795,0,13546.5367389521,46628.5454815762,0,31201.1572740471,0,0,65029.4594091351
2012,13236.6517538003,118902.736694657,45016.6162680485,46630.0093678362,14417.3003519336,66882.321743327,43935.9896228373,44047.5727641673,59502.7584012005,54584.6120414071,0,0,0,0,28239.9059718256,0,0,0,76781.7947545919,59629.8354453957,54454.0970445106,0,0,49558.3973401672,40909.0532853395,29797.6495446723,0,14417.3003519336,63938.7607383905,32402.4057647542,29100.8134385852,42855.3629776262,49350.312710226,51201.7566163822,0,118902.736694657,0,39075.9712770504,0,47334.9967107354,0,0,0,26089.7288945427,40937.3828905633,0,13236.6517538003,45016.6162680485,0,31549.0115361724,0,0,66882.321743327
2013,13810.4065523343,119682.594454985,42384.595726609,46688.9674689614,13810.4065523343,66909.3291788066,42228.5077433015,43696.2707055392,61639.9651439635,54087.4747532001,0,0,0,0,28779.2193187843,0,0,0,77081.6250252939,60648.0301198095,53141.7932651879,0,0,48952.8933375067,40480.2576245935,28423.7396794937,0,13810.4065523343,63231.2291828198,32044.5457551034,30263.2477053261,42072.4197599939,49542.1407940911,51895.2133601081,0,119682.594454985,0,38661.9365058906,0,49116.3961469227,0,0,0,26601.4609332461,40415.9782026001,0,15077.6052402915,42384.595726609,0,32280.0889570736,0,0,66909.3291788066
2014,15738.0980418808,122466.931572277,45313.0521290734,47874.35187211,20198.1393046647,67012.7643701745,41666.0984304266,44264.3996971593,61884.8344780779,53472.2998051185,0,0,0,0,28579.8846238802,0,0,0,78212.7947651919,60492.8671788594,52736.8170776032,0,0,48342.7097934444,40316.5894267475,26791.4461828461,0,20198.1393046647,62641.2992387258,0,34396.4666064008,41789.7259461356,49082.4763491047,52323.8022986782,0,122466.931572277,0,39602.2963919048,0,48444.4101188497,0,0,0,26611.8817292673,42283.3944647025,0,15738.0980418808,41542.4709147175,0,34020.0442513855,0,0,67012.7643701745
2015,16548.4526187355,122108.279797982,45696.9747092645,48433.0093238239,20710.293154189,66944.3326282197,41732.0606613888,44486.0757444809,63139.4811501626,53481.6655721544,0,0,0,0,28585.2980255917,0,0,0,81731.2093086093,62328.6643336855,53281.0167746473,0,0,48118.5195140208,40236.7706721156,27293.5715145219,0,20710.293154189,62032.8142112929,0,34789.3918826381,41706.4751229304,49197.6994189471,54691.4585712761,0,122108.279797982,0,39842.7746288822,0,49459.3403862063,0,0,0,26767.1968113209,43275.4299045081,0,16548.4526187355,41757.6461998472,0,34364.4415692877,0,0,66944.3326282197
2016,17302.3021708854,121159.092625923,44872.1990052588,47557.5246671485,21258.2673438614,66034.908117628,43625.6627012206,44213.8801553292,0,56303.9314237945,0,0,0,0,28425.5413937641,0,0,0,83088.1818758262,57745.7786014243,53849.9912947119,0,0,48151.5497587295,40173.2591327664,27714.9187341801,0,21258.2673438614,61571.4995007989,38842.0736111706,35499.3054235154,41651.7105068208,48764.1904204137,55763.8235241898,0,121159.092625923,0,43390.3592955217,0,51108.7813610397,0,0,0,26963.0500758466,45883.4319035982,0,17302.3021708854,43860.9661069194,0,26873.6778082352,0,0,66034.908117628
2017,18482.2499881181,119874.119108019,46177.9031795142,49103.8975862722,21498.5612571416,66308.9606226992,43653.1838767464,44729.6017320047,64123.4556074402,56252.1398926222,0,0,0,0,36140.9429054748,0,0,0,84016.4116854578,58103.6274650942,54060.0917507638,0,0,47917.1018271546,40826.5820949011,27644.7093710045,0,21498.5612571416,63022.4404523496,43683.1191249568,36139.9285283806,41407.8259151528,49255.6886736534,56759.3954195463,0,119874.119108019,0,42897.0564809448,0,51057.5290188493,0,0,0,27007.7976205987,46177.9031795142,0,18482.2499881181,44409.3112725481,0,30530.4903944186,0,0,66308.9606226992
2018,19235.8562677961,120479.450370513,45578.5743375786,49328.7644690445,21464.8867764443,65775.5730820192,43395.8145015252,44899.5149604294,64504.4426971341,56263.6984022927,0,0,0,0,36075.7036590273,0,0,0,84511.9546478383,61060.9086424394,54040.0371762286,0,0,47488.6645291509,40733.6479982648,27166.0730722191,0,21464.8867764443,63456.3981115581,44593.0765114337,35853.8267009306,42011.7852168698,49476.8371578418,57395.8313499618,0,120479.450370513,0,43046.8449888575,0,51031.6068837353,0,0,0,27179.3683788536,45578.5743375786,0,19235.8562677961,43744.7840141929,0,31049.2807529298,0,0,65775.5730820192
2019,20019.5112571972,110530.982042461,45063.9524870405,48686.7109478943,20673.8039192959,65947.9294394716,43782.5065104526,44742.471923513,65000.8675092956,56700.8887162919,0,0,0,0,37776.0030781891,39960.9269975892,0,0,85441.9676861685,59282.7590873508,54813.545070468,0,0,47570.2793780509,40454.3128450961,26889.6924998153,0,20673.8039192959,62612.9903812942,43462.7516604919,35813.0828201852,42226.8240715829,49493.141397271,57926.7125495137,0,110530.982042461,0,43365.1992478883,0,50835.9095797493,0,0,0,28325.4210949942,45063.9524870405,0,20019.5112571972,44199.8137730168,48988.0376508061,31163.8893525713,0,0,65947.9294394716
2020,19294.7302310866,109203.910139723,45857.1024339455,49402.748417359,19891.1028164183,66104.6039109163,44593.5218016122,45305.922973891,62021.4769221889,57732.3804336547,0,0,0,71663.5686999906,37823.5556701517,43073.4068500279,34161.1201218677,28266.2745120718,88037.0733245881,60765.1191918596,55687.4584837613,0,0,47714.5127283107,42078.8788564443,27335.4978661865,0,19891.1028164183,62906.0690508123,42024.098731385,36717.7112408846,42385.4583933224,49497.4842566684,59164.8584710154,33667.2483510556,109203.910139723,0,43329.9411692789,81064.0078164079,51351.8066547082,53246.8382284071,0,0,30768.1697042958,44801.7015859215,0,19294.7302310866,45857.1024339455,50686.4716397199,31967.0592857715,0,0,66104.6039109163
2021,20634.8661683107,112266.198007471,49168.2969481349,51988.8015521026,20634.8661683107,67626.1345445459,46276.2305572221,46456.333418646,68439.5706483447,60420.380562228,0,0,0,70331.0630114381,0,42676.731,34471.1865414297,28534.133856297,92565.9714181713,62900.785598373,56428.1110159816,0,0,49168.2969481349,43132.821331402,27026.1430273579,0,20634.8661683107,62947.5224528478,45371.4045673343,36243.9648969436,43015.1136374428,49355.5570629811,60246.5390594918,35391.7648414715,112266.198007471,0,44349.3123573004,84315.1864944674,50677.33051962,52698.802518496,0,0,32039.7352294866,44412.9255246363,0,0,48203.1487571438,50397.526,35364.6205160314,0,0,67626.1345445459
2022,19341.777,112007.74,48062.365,50283.0307297297,21688.502,70246.859,47450.3435,47585.5685,69368.953,70246.859,60488.392,56723.933,22850.568,64383.568,38393.503,0,32003.991,29179.709,93084.59,61967.767,57758.407,0,49014.548,49293.608,43792.213,26995.617,32107.626,21688.502,58414.595,0,34902.844,43038.177,47349.372,59405.98,37946.45,112007.74,0,43455.643,84862.186,51727.32,56124.702,0,51605.944,31446.908,44276.602,29968.64,19341.777,48062.365,0,47551.315,55726.257,55096.376,69439.082
